module gitlab.com/tamas-gbd/xlsx/v3

go 1.15

require (
	github.com/frankban/quicktest v1.11.2
	github.com/google/btree v1.0.0 // indirect
	github.com/niemeyer/pretty v0.0.0-20200227124842-a10e7caefd8e // indirect
	github.com/peterbourgon/diskv v2.0.1+incompatible
	github.com/pkg/profile v1.5.0
	github.com/rogpeppe/fastuuid v1.2.0
	github.com/shabbyrobe/xmlwriter v0.0.0-20200208144257-9fca06d00ffa
	golang.org/x/text v0.3.3 // indirect
	gopkg.in/check.v1 v1.0.0-20200902074654-038fdea0a05b
)
